{
  "database": {
    "rules": "database.rules.json"
  },
  "firestore": {
    "rules": "firestore.rules",
    "indexes": "firestore.indexes.json"
  },
  "functions": {
    "predeploy": [
      "npm --prefix \"$RESOURCE_DIR\" run lint"
    ],
    "source": "functions"
  },
  "hosting": {
    "public": "dist",
    "rewrites":[{
      "source":"/home",
      "function":"app"
    },{
      "source":"/getUsers",
      "function":"app"
    },{
      "source":"/getConnectedDevices",
      "function":"app"
    },{
      "source":"/getUserDetails",
      "function":"app"
    },{
      "source":"/getEnergyResources",
      "function":"app"
    },{
      "source":"/getNotification",
      "function":"app"
    },{
      "source":"/getAppliances",
      "function":"app"
    }],
    "ignore": [
      "firebase.json",
      "**/.*",
      "**/node_modules/**"
    ]
  },
  "storage": {
    "rules": "storage.rules"
  }
}
